R pivot_longer() and Python melt()
…
We apply the pivot_longer function to our clothes data-frame, choosing the columns 3,4 and 5 to be pivoted into a column named “colors” and the values to the column named quantities:

clothes_long <- pivot_longer(clothes,
                             3:5,
                             names_to = "colors",
                             values_to = "quantities")

We print the pivoted version of our data:

# Printing clothes_long
print(clothes_long)

# A tibble: 30 × 4
   item     price colors quantities
   <chr>    <dbl> <chr>       <dbl>
 1 t-shirts  10.0 pink            2
 2 t-shirts  10.0 blue            3
 3 t-shirts  10.0 yellow          1
 4 jackets   24.5 pink            6
 5 jackets   24.5 blue            4
 6 jackets   24.5 yellow          5
 7 hoodies   39.9 pink            3
 8 hoodies   39.9 blue            3
 9 hoodies   39.9 yellow          8
10 jeans     45.0 pink            4
# ℹ 20 more rows
…
